…
# What is in a dataset?


## Dataset terminology

- Each row is an **observation**
- Each column is a **variable**



```r
starwars
#> # A tibble: 87 x 14
#>    name        height  mass hair_color  skin_color eye_color
#>    <chr>        <int> <dbl> <chr>       <chr>      <chr>    
#>  1 Luke Skywa~    172    77 blond       fair       blue     
#>  2 C-3PO          167    75 <NA>        gold       yellow   
#>  3 R2-D2           96    32 <NA>        white, bl~ red      
#>  4 Darth Vader    202   136 none        white      yellow   
#>  5 Leia Organa    150    49 brown       light      brown    
#>  6 Owen Lars      178   120 brown, grey light      blue     
#>  7 Beru White~    165    75 brown       light      blue     
#>  8 R5-D4           97    32 <NA>        white, red red      
#>  9 Biggs Dark~    183    84 black       light      brown    
#> 10 Obi-Wan Ke~    182    77 auburn, wh~ fair       blue-gray
#> # ... with 77 more rows, and 8 more variables:
#> #   birth_year <dbl>, sex <chr>, gender <chr>,
#> #   homeworld <chr>, species <chr>, films <list>,
#> #   vehicles <list>, starships <list>
```
…
